<?xml version="1.0" encoding="utf-8" standalone="no"?><!DOCTYPE svg PUBLIC "-//W3C//DTD SVG 20010904//EN" "http://www.w3.org/TR/2001/REC-SVG-20010904/DTD/svg10.dtd"><svg xmlns="http://www.w3.org/2000/svg" width="431" height="326" xmlns:xlink="http://www.w3.org/1999/xlink"><source><![CDATA[Client->Firebase: query data
CMS->Firebase: query data
CMS->Firebase: updates data
Firebase-->Client: notifies on update
Client->Firebase: updates responses]]></source><desc></desc><defs><marker viewBox="0 0 5 5" markerWidth="5" markerHeight="5" orient="auto" refX="5" refY="2.5" id="markerArrowBlock"><path d="M 0 0 L 5 2.5 L 0 5 z"></path></marker><marker viewBox="0 0 9.6 16" markerWidth="4" markerHeight="16" orient="auto" refX="9.6" refY="8" id="markerArrowOpen"><path d="M 9.6,8 1.92,16 0,13.7 5.76,8 0,2.286 1.92,0 9.6,8 z"></path></marker></defs><g class="title"></g><g class="actor"><rect x="10" y="20" width="77.609375" height="38" stroke="#000000" fill="#ffffff" style="stroke-width: 2;"></rect><text x="20" y="44.5" style="font-size: 16px; font-family: &quot;Andale Mono&quot;, monospace;"><tspan x="20">Client</tspan></text></g><g class="actor"><rect x="10" y="268" width="77.609375" height="38" stroke="#000000" fill="#ffffff" style="stroke-width: 2;"></rect><text x="20" y="292.5" style="font-size: 16px; font-family: &quot;Andale Mono&quot;, monospace;"><tspan x="20">Client</tspan></text></g><line x1="48.8046875" x2="48.8046875" y1="58" y2="268" stroke="#000000" fill="none" style="stroke-width: 2;"></line><g class="actor"><rect x="193.2265625" y="20" width="96.8125" height="38" stroke="#000000" fill="#ffffff" style="stroke-width: 2;"></rect><text x="203.2265625" y="44.5" style="font-size: 16px; font-family: &quot;Andale Mono&quot;, monospace;"><tspan x="203.2265625">Firebase</tspan></text></g><g class="actor"><rect x="193.2265625" y="268" width="96.8125" height="38" stroke="#000000" fill="#ffffff" style="stroke-width: 2;"></rect><text x="203.2265625" y="292.5" style="font-size: 16px; font-family: &quot;Andale Mono&quot;, monospace;"><tspan x="203.2265625">Firebase</tspan></text></g><line x1="241.6328125" x2="241.6328125" y1="58" y2="268" stroke="#000000" fill="none" style="stroke-width: 2;"></line><g class="actor"><rect x="352.453125" y="20" width="48.796875" height="38" stroke="#000000" fill="#ffffff" style="stroke-width: 2;"></rect><text x="362.453125" y="44.5" style="font-size: 16px; font-family: &quot;Andale Mono&quot;, monospace;"><tspan x="362.453125">CMS</tspan></text></g><g class="actor"><rect x="352.453125" y="268" width="48.796875" height="38" stroke="#000000" fill="#ffffff" style="stroke-width: 2;"></rect><text x="362.453125" y="292.5" style="font-size: 16px; font-family: &quot;Andale Mono&quot;, monospace;"><tspan x="362.453125">CMS</tspan></text></g><line x1="376.8515625" x2="376.8515625" y1="58" y2="268" stroke="#000000" fill="none" style="stroke-width: 2;"></line><g class="signal"><text x="97.2109375" y="88.5" style="font-size: 16px; font-family: &quot;Andale Mono&quot;, monospace;"><tspan x="97.2109375">query data</tspan></text><line x1="48.8046875" x2="241.6328125" y1="96" y2="96" stroke="#000000" fill="none" style="stroke-width: 2; marker-end: url(&quot;#markerArrowBlock&quot;);"></line></g><g class="signal"><text x="261.234375" y="126.5" style="font-size: 16px; font-family: &quot;Andale Mono&quot;, monospace;"><tspan x="261.234375">query data</tspan></text><line x1="376.8515625" x2="241.6328125" y1="134" y2="134" stroke="#000000" fill="none" style="stroke-width: 2; marker-end: url(&quot;#markerArrowBlock&quot;);"></line></g><g class="signal"><text x="251.6328125" y="164.5" style="font-size: 16px; font-family: &quot;Andale Mono&quot;, monospace;"><tspan x="251.6328125">updates data</tspan></text><line x1="376.8515625" x2="241.6328125" y1="172" y2="172" stroke="#000000" fill="none" style="stroke-width: 2; marker-end: url(&quot;#markerArrowBlock&quot;);"></line></g><g class="signal"><text x="58.8046875" y="202.5" style="font-size: 16px; font-family: &quot;Andale Mono&quot;, monospace;"><tspan x="58.8046875">notifies on update</tspan></text><line x1="241.6328125" x2="48.8046875" y1="210" y2="210" stroke="#000000" fill="none" style="stroke-width: 2; stroke-dasharray: 6, 2; marker-end: url(&quot;#markerArrowBlock&quot;);"></line></g><g class="signal"><text x="63.609375" y="240.5" style="font-size: 16px; font-family: &quot;Andale Mono&quot;, monospace;"><tspan x="63.609375">updates responses</tspan></text><line x1="48.8046875" x2="241.6328125" y1="248" y2="248" stroke="#000000" fill="none" style="stroke-width: 2; marker-end: url(&quot;#markerArrowBlock&quot;);"></line></g></svg>